<?xml version="1.0" encoding="UTF-8"?>
<DataFileEntity>
   <description></description>
   <name>CC08_ClientesAfectados</name>
   <tag></tag>
   <containsHeaders>true</containsHeaders>
   <csvSeperator></csvSeperator>
   <dataFileGUID>8f589cdd-56fd-4e5a-adad-f4ceb246f3ee</dataFileGUID>
   <dataSourceUrl>C:\Automatizaciones\Scripts\Nexus\Datos de Entrada\CC_08.xlsx</dataSourceUrl>
   <driver>ExcelFile</driver>
   <isInternalPath>false</isInternalPath>
   <query></query>
   <secureUserAccount>false</secureUserAccount>
   <sheetName>clientes_afectados</sheetName>
   <usingGlobalDBSetting>false</usingGlobalDBSetting>
</DataFileEntity>
