<?xml version="1.0" encoding="UTF-8"?>
<DataFileEntity>
   <description></description>
   <name>02</name>
   <tag></tag>
   <containsHeaders>true</containsHeaders>
   <csvSeperator></csvSeperator>
   <dataFileGUID>5291d150-c4c9-4694-b96b-e469ecf7a27f</dataFileGUID>
   <dataSourceUrl>C:\Automatizaciones\Scripts\nexus\Datos de Entrada\CC3.xlsx</dataSourceUrl>
   <driver>ExcelFile</driver>
   <isInternalPath>false</isInternalPath>
   <query></query>
   <secureUserAccount>false</secureUserAccount>
   <sheetName>02</sheetName>
   <usingGlobalDBSetting>false</usingGlobalDBSetting>
</DataFileEntity>
